TWS workshop: Coding Session 1
…
table(dat$`individual-local-identifier`)

## 
##    F1    F2    F3    M1    M2    M3    M4    M5 
##  2795  4689  3383  1990  3573  5013 10846 15058

Next, we create an amt track

dat1 <- filter(dat, `individual-local-identifier` == "M2") 
dat1 %>% make_track(`location-long`, `location-lat`) 

## .t missing, creating `track_xy`.

## # A tibble: 3,573 x 2
##       x_    y_
##    <dbl> <dbl>
##  1  NA    NA  
##  2 -73.9  42.8
##  3 -73.9  42.8
##  4  NA    NA  
##  5 -73.9  42.8
##  6 -73.9  42.8
##  7 -73.9  42.8
##  8 -73.9  42.8
##  9 -73.9  42.8
## 10 -73.9  42.8
## #  with 3,563 more rows

Add a coordinate reference system (CRS)

dat1 %>% make_track(`location-long`, `location-lat`, crs = CRS("+init=epsg:4326")) 

## .t missing, creating `track_xy`.

## # A tibble: 3,573 x 2
##       x_    y_
##  * <dbl> <dbl>
##  1  NA    NA  
##  2 -73.9  42.8
##  3 -73.9  42.8
##  4  NA    NA  
##  5 -73.9  42.8
##  6 -73.9  42.8
##  7 -73.9  42.8
##  8 -73.9  42.8
##  9 -73.9  42.8
## 10 -73.9  42.8
## #  with 3,563 more rows

Add time

dat2 <- dat1 %>% make_track(`location-long`, `location-lat`, timestamp, crs = CRS("+init=epsg:4326")) 

## .t found, creating `track_xyt`.

dat2

## # A tibble: 3,573 x 3
##       x_    y_ t_                 
##  * <dbl> <dbl> <dttm>             
##  1  NA    NA   2011-02-10 16:50:00
##  2 -73.9  42.8 2011-02-10 16:59:31
##  3 -73.9  42.8 2011-02-10 17:00:52
##  4  NA    NA   2011-02-10 17:10:00
##  5 -73.9  42.8 2011-02-10 17:11:22
##  6 -73.9  42.8 2011-02-10 17:20:40
##  7 -73.9  42.8 2011-02-10 17:30:50
##  8 -73.9  42.8 2011-02-10 17:41:16
##  9 -73.9  42.8 2011-02-10 17:50:53
## 10 -73.9  42.8 2011-02-10 18:01:08
## #  with 3,563 more rows

Remove fixes with missing coordinates (do investigate where the NAs come from)

dat2 <- filter(dat2, !is.na(x_), !is.na(y_))
dat2

## # A tibble: 1,638 x 3
##       x_    y_ t_                 
##  * <dbl> <dbl> <dttm>             
##  1 -73.9  42.8 2011-02-10 16:59:31
##  2 -73.9  42.8 2011-02-10 17:00:52
##  3 -73.9  42.8 2011-02-10 17:11:22
##  4 -73.9  42.8 2011-02-10 17:20:40
##  5 -73.9  42.8 2011-02-10 17:30:50
##  6 -73.9  42.8 2011-02-10 17:41:16
##  7 -73.9  42.8 2011-02-10 17:50:53
##  8 -73.9  42.8 2011-02-10 18:01:08
##  9 -73.9  42.8 2011-02-10 18:10:52
## 10 -73.9  42.8 2011-02-10 18:20:55
## #  with 1,628 more rows

Transform coordinates to a metric CRS (e.g., NAD83)

dat2 <- transform_coords(dat2, CRS("+init=epsg:5070"))
dat2

## # A tibble: 1,638 x 3
##          x_       y_ t_                 
##  *    <dbl>    <dbl> <dttm>             
##  1 1782639. 2407234. 2011-02-10 16:59:31
##  2 1782654. 2407244. 2011-02-10 17:00:52
##  3 1782637. 2407225. 2011-02-10 17:11:22
##  4 1782645. 2407223. 2011-02-10 17:20:40
##  5 1782627. 2407232. 2011-02-10 17:30:50
##  6 1782612. 2407244. 2011-02-10 17:41:16
##  7 1782634. 2407233. 2011-02-10 17:50:53
##  8 1782653. 2407269. 2011-02-10 18:01:08
##  9 1782639. 2407234. 2011-02-10 18:10:52
## 10 1782635. 2407217. 2011-02-10 18:20:55
## #  with 1,628 more rows

Work with tracks

dat2 %>% step_lengths() %>% head()  # Step lengths

## [1] 17.776165 25.088881  7.446075 20.191599 19.285146 24.793985

dat2 %>% direction_rel() %>% head()  # Relative direction

## [1]         NA -2.8335937  2.0454632  2.9047455 -0.1910427 -2.9249795

dat2 %>% time_of_day()  # Time of day

## # A tibble: 1,638 x 4
##          x_       y_ t_                  tod_ 
##  *    <dbl>    <dbl> <dttm>              <chr>
##  1 1782639. 2407234. 2011-02-10 16:59:31 day  
##  2 1782654. 2407244. 2011-02-10 17:00:52 day  
##  3 1782637. 2407225. 2011-02-10 17:11:22 day  
##  4 1782645. 2407223. 2011-02-10 17:20:40 day  
##  5 1782627. 2407232. 2011-02-10 17:30:50 day  
##  6 1782612. 2407244. 2011-02-10 17:41:16 day  
##  7 1782634. 2407233. 2011-02-10 17:50:53 day  
##  8 1782653. 2407269. 2011-02-10 18:01:08 day  
##  9 1782639. 2407234. 2011-02-10 18:10:52 day  
## 10 1782635. 2407217. 2011-02-10 18:20:55 day  
## #  with 1,628 more rows
…
What was the sampling rate?

summarize_sampling_rate(dat2)

## # A tibble: 1 x 9
##   min     q1       median   mean     q3       max         sd     n unit 
##   <table> <table>  <table>  <table>  <table>  <table>  <dbl> <int> <chr>
## 1 1.35    9.783333 10.01667 21.72991 10.33333 2110.833  87.2  1637 min

Resample the data

dat3 <- track_resample(dat2, rate = hours(1), tolerance = minutes(10))
dat3

## # A tibble: 341 x 4
##          x_       y_ t_                  burst_
##  *    <dbl>    <dbl> <dttm>               <dbl>
##  1 1782639. 2407234. 2011-02-10 16:59:31      1
##  2 1782634. 2407233. 2011-02-10 17:50:53      1
##  3 1782635. 2407229. 2011-02-10 18:41:13      1
##  4 1782647. 2407234. 2011-02-10 19:40:52      1
##  5 1782920. 2406982. 2011-02-10 21:50:44      2
##  6 1784232. 2404878. 2011-02-11 12:00:57      3
##  7 1785153. 2406024. 2011-02-13 00:01:01      4
##  8 1784974. 2405430. 2011-02-13 00:51:21      4
##  9 1785031. 2405558. 2011-02-13 01:50:56      4
## 10 1785289. 2406231. 2011-02-13 02:40:58      4
## #  with 331 more rows

Bursts in amt: A burst_ is a sequence of consecutive relocations with equal smpling rates

dat3

## # A tibble: 341 x 4
##          x_       y_ t_                  burst_
##  *    <dbl>    <dbl> <dttm>               <dbl>
##  1 1782639. 2407234. 2011-02-10 16:59:31      1
##  2 1782634. 2407233. 2011-02-10 17:50:53      1
##  3 1782635. 2407229. 2011-02-10 18:41:13      1
##  4 1782647. 2407234. 2011-02-10 19:40:52      1
##  5 1782920. 2406982. 2011-02-10 21:50:44      2
##  6 1784232. 2404878. 2011-02-11 12:00:57      3
##  7 1785153. 2406024. 2011-02-13 00:01:01      4
##  8 1784974. 2405430. 2011-02-13 00:51:21      4
##  9 1785031. 2405558. 2011-02-13 01:50:56      4
## 10 1785289. 2406231. 2011-02-13 02:40:58      4
## #  with 331 more rows

table(dat3$burst_)

## 
##  1  2  3  4  5  6  7  8  9 10 11 12 13 14 15 16 17 18 19 20 21 22 23 24 25 
##  4  1  1  6  1  1  3  2  6  8 10  4  1  2 13  9  8  3 17  9  2 30  1  5  1 
## 26 27 28 29 30 31 32 33 34 35 36 37 38 39 40 41 42 43 44 45 46 47 48 49 50 
##  2  1  2  4 23  2  7  1  4 17  2  2  1  3  6  5 16  3  9  6  1 13 11  1  3 
## 51 52 53 54 55 56 57 58 59 60 61 62 63 64 
##  6  2  3  3 10 11  1  2  1  2  4  1  1  1

dat3 %>% filter_min_n_burst()

## # A tibble: 302 x 4
##          x_       y_ t_                  burst_
##  *    <dbl>    <dbl> <dttm>               <dbl>
##  1 1782639. 2407234. 2011-02-10 16:59:31      1
##  2 1782634. 2407233. 2011-02-10 17:50:53      1
##  3 1782635. 2407229. 2011-02-10 18:41:13      1
##  4 1782647. 2407234. 2011-02-10 19:40:52      1
##  5 1785153. 2406024. 2011-02-13 00:01:01      4
##  6 1784974. 2405430. 2011-02-13 00:51:21      4
##  7 1785031. 2405558. 2011-02-13 01:50:56      4
##  8 1785289. 2406231. 2011-02-13 02:40:58      4
##  9 1785291. 2406267. 2011-02-13 03:40:50      4
## 10 1785278. 2406239. 2011-02-13 04:31:10      4
## #  with 292 more rows
…
dat5 <- dat4 %>% time_of_day()

Filter for one animal

env <- read_rds(here::here("data/env_covar.rds"))
trk <- read_rds(here::here("data/trk.rds"))
dat1 <- trk %>% filter(id == "M2")
dat2 <- track_resample(dat1, rate = minutes(10), tolerance = minutes(1))

dat2

## # A tibble: 1,618 x 6
##          x_       y_ t_                  id    tod_  burst_
##  *    <dbl>    <dbl> <dttm>              <fct> <chr>  <dbl>
##  1 1782639. 2407234. 2011-02-10 16:59:31 M2    day        1
##  2 1782637. 2407225. 2011-02-10 17:11:22 M2    day        2
##  3 1782645. 2407223. 2011-02-10 17:20:39 M2    day        2
##  4 1782627. 2407232. 2011-02-10 17:30:49 M2    day        2
##  5 1782612. 2407244. 2011-02-10 17:41:15 M2    day        2
##  6 1782634. 2407233. 2011-02-10 17:50:52 M2    day        2
##  7 1782653. 2407269. 2011-02-10 18:01:08 M2    day        2
##  8 1782639. 2407234. 2011-02-10 18:10:52 M2    day        2
##  9 1782635. 2407217. 2011-02-10 18:20:54 M2    day        2
## 10 1782629. 2407225. 2011-02-10 18:31:43 M2    day        2
## #  with 1,608 more rows
…
Extract covariates at random and observed points

dat3 <- dat2 %>% random_points() %>% extract_covariates(env)
dat3

## # A tibble: 17,798 x 7
##    case_       x_       y_ elevation landuse pop_den forest
##    <lgl>    <dbl>    <dbl>     <dbl>   <dbl>   <dbl>  <dbl>
##  1 TRUE  1782639. 2407234.     -156.      43    453.      1
##  2 TRUE  1782637. 2407225.     -156.      43    446.      1
##  3 TRUE  1782645. 2407223.     -156.      43    446.      1
##  4 TRUE  1782627. 2407232.     -156.      43    453.      1
##  5 TRUE  1782612. 2407244.     -155.      43    458.      1
##  6 TRUE  1782634. 2407233.     -156.      43    453.      1
##  7 TRUE  1782653. 2407269.     -154.      41    456.      1
##  8 TRUE  1782639. 2407234.     -156.      43    453.      1
##  9 TRUE  1782635. 2407217.     -156.      43    446.      1
## 10 TRUE  1782629. 2407225.     -156.      43    446.      1
## #  with 17,788 more rows
…
